{
  "project_info": {
    "project_number": "210418992659",
    "firebase_url": "https://appgruas-6fdd2.firebaseio.com",
    "project_id": "appgruas-6fdd2",
    "storage_bucket": "appgruas-6fdd2.appspot.com"
  },
  "client": [
    {
      "client_info": {
        "mobilesdk_app_id": "1:210418992659:android:764d2cb7da3280eb",
        "android_client_info": {
          "package_name": "io.ionic.starter"
        }
      },
      "oauth_client": [
        {
          "client_id": "210418992659-uf1um4to3g2h6dp6tp4mm6psjt3rn9s9.apps.googleusercontent.com",
          "client_type": 3
        }
      ],
      "api_key": [
        {
          "current_key": "AIzaSyCRuYlvbFIu3CSCq257TrYGuMS7NtD8ims"
        }
      ],
      "services": {
        "analytics_service": {
          "status": 1
        },
        "appinvite_service": {
          "status": 1,
          "other_platform_oauth_client": []
        },
        "ads_service": {
          "status": 2
        }
      }
    }
  ],
  "configuration_version": "1"
}